// Jest Snapshot v1, https://goo.gl/fbAQLP

exports[`VehicleMarker matches snapshot 1`] = `
<div>
  <div
    class="mapboxgl-marker "
    style="position: absolute; left: 0px; top: 0px; transform: translate(579100px, 210415px); cursor: auto;"
  >
    <button
      class="MuiButtonBase-root MuiIconButton-root MuiIconButton-sizeSmall"
      tabindex="0"
      type="button"
    >
      <span
        class="MuiIconButton-label"
      >
        <svg
          aria-hidden="true"
          class="MuiSvgIcon-root"
          focusable="false"
          viewBox="0.299 123.962 595.28 595.28"
        >
          <path
            d="M481.435,321.277h-6.27v-37.622c0-35.114-77.753-62.704-175.569-62.704c-97.818,0-175.569,27.59-175.569,62.704v37.622 h-6.271c-10.386,0-18.811,8.419-18.811,18.812v62.702c0,10.387,8.425,18.813,18.811,18.813h6.271V547.01 c0,13.849,11.231,25.081,25.081,25.081v25.081c0,13.85,11.231,25.081,25.081,25.081h25.081c13.85,0,25.081-11.231,25.081-25.081 v-25.081h150.487v25.081c0,13.85,11.232,25.081,25.081,25.081H425c13.85,0,25.082-11.231,25.082-25.081v-25.081h5.015 c12.541,0,20.066-10.033,20.066-20.065V421.602h6.27c10.387,0,18.811-8.425,18.811-18.812v-62.701 C500.244,329.696,491.821,321.277,481.435,321.277z M186.731,534.467c-13.851,0-25.082-11.229-25.082-25.079 c0-13.851,11.231-25.081,25.082-25.081c13.849,0,25.08,11.23,25.08,25.081C211.811,523.237,200.579,534.467,186.731,534.467z M199.27,446.684c-13.85,0-25.081-11.232-25.081-25.082V321.277c0-13.849,11.231-25.081,25.081-25.081h200.65 c13.85,0,25.081,11.232,25.081,25.081v100.325c0,13.85-11.231,25.082-25.081,25.082H199.27z M412.461,534.467 c-13.85,0-25.081-11.229-25.081-25.079c0-13.851,11.231-25.081,25.081-25.081s25.082,11.23,25.082,25.081 C437.543,523.237,426.311,534.467,412.461,534.467z"
          />
          <polygon
            points="191.753,636.174 299.596,719.242 407.437,636.174 "
          />
        </svg>
      </span>
      <span
        class="MuiTouchRipple-root"
      />
    </button>
  </div>
</div>
`;
